…
```r
# grouped mutate: proportional area of county within group
nc_groups %>% 
  select(group, AREA) %>% 
  group_by(group) %>% 
  ungroup() %>% 
  mutate(area_prop = sum(AREA)) %>% 
  as_tibble()
#> Simple feature collection with 100 features and 3 fields
#> geometry type:  MULTIPOLYGON
#> dimension:      XY
#> bbox:           xmin: -84.32385 ymin: 33.88199 xmax: -75.45698 ymax: 36.58965
#> epsg (SRID):    4267
#> proj4string:    +proj=longlat +datum=NAD27 +no_defs
#> # A tibble: 100 x 4
#>    group  AREA area_prop          geometry
#>    <chr> <dbl>     <dbl>  <simple_feature>
#>  1     A 0.114    12.626 <MULTIPOLYGON...>
#>  2     C 0.061    12.626 <MULTIPOLYGON...>
#>  3     C 0.143    12.626 <MULTIPOLYGON...>
#>  4     B 0.070    12.626 <MULTIPOLYGON...>
#>  5     B 0.153    12.626 <MULTIPOLYGON...>
#>  6     A 0.097    12.626 <MULTIPOLYGON...>
#>  7     A 0.062    12.626 <MULTIPOLYGON...>
#>  8     A 0.091    12.626 <MULTIPOLYGON...>
#>  9     C 0.118    12.626 <MULTIPOLYGON...>
#> 10     B 0.124    12.626 <MULTIPOLYGON...>
#> # ... with 90 more rows
```
…
```r
# grouped filter: only keep counties in groups with area greater than 0.13
nc_groups %>% 
  select(group, AREA) %>% 
  group_by(group) %>% 
  filter(mean(AREA) > 0.13) %>% 
  as_tibble()
#> Simple feature collection with 38 features and 2 fields
#> geometry type:  MULTIPOLYGON
#> dimension:      XY
#> bbox:           xmin: -83.25912 ymin: 33.94867 xmax: -75.45698 ymax: 36.55716
#> epsg (SRID):    4267
#> proj4string:    +proj=longlat +datum=NAD27 +no_defs
#> # A tibble: 38 x 3
#> # Groups:   group [1]
#>    group  AREA          geometry
#>    <chr> <dbl>  <simple_feature>
#>  1     B 0.070 <MULTIPOLYGON...>
#>  2     B 0.153 <MULTIPOLYGON...>
#>  3     B 0.124 <MULTIPOLYGON...>
#>  4     B 0.153 <MULTIPOLYGON...>
#>  5     B 0.072 <MULTIPOLYGON...>
#>  6     B 0.081 <MULTIPOLYGON...>
#>  7     B 0.064 <MULTIPOLYGON...>
#>  8     B 0.128 <MULTIPOLYGON...>
#>  9     B 0.170 <MULTIPOLYGON...>
#> 10     B 0.111 <MULTIPOLYGON...>
#> # ... with 28 more rows
```
…
